Eighth Week: Text Analysis in R
…
.                       .

(ps_words <- tibble(chapter = seq_along(lesmisrables$text),
                    text = lesmisrables$text) %>%
    unnest_tokens(word, text) %>%
    filter(!word %in% stop_words$word) %>%
    filter(str_length(word)>2))

## # A tibble: 192,235 x 2
##    chapter word       
##      <int> <chr>      
##  1       1 les        
##  2       1 mis        
##  3       1 rables     
##  4       4 victor     
##  5       4 hugo       
##  6       7 premier    
##  7       9 fantine    
##  8      11 authorized 
##  9      11 translation
## 10      11 sir        
## # ... with 192,225 more rows
…
